{
  "/search": {
    "target": "https://api.deezer.com",
    "secure": true,
    "logLevel": "debug",
    "changeOrigin": true
  },
  "/artist": {
    "target": "https://api.deezer.com",
    "secure": true,
    "logLevel": "debug",
    "changeOrigin": true
  }
}